(module IPC7351-Nominal:CAPMP6032X280 (layer F.Cu) (tedit 564C87F1)
  (descr "Capacitor,polarized,Molded Body;6.00mm L X 3.20mm W X 2.80mm H")
  (attr smd)
  (fp_text reference C54 (at 4.3 -0.05 90) (layer F.SilkS)
    (effects (font (size 0.8 0.8) (thickness 0.15)))
  )
  (fp_text value 100u (at 0 0) (layer F.Fab)
    (effects (font (size 0.8 0.8) (thickness 0.15)))
  )
  (fp_line (start -3.127 -1.506) (end -3.127 -1.727) (layer F.SilkS) (width 0.35))
  (fp_line (start -3.127 -1.727) (end 3.127 -1.727) (layer F.SilkS) (width 0.35))
  (fp_line (start 3.127 -1.727) (end 3.127 -1.506) (layer F.SilkS) (width 0.35))
  (fp_line (start -3.127 1.506) (end -3.127 1.727) (layer F.SilkS) (width 0.35))
  (fp_line (start -3.127 1.727) (end 3.127 1.727) (layer F.SilkS) (width 0.35))
  (fp_line (start 3.127 1.727) (end 3.127 1.506) (layer F.SilkS) (width 0.35))
  (fp_line (start -3.889 -1.6711) (end -3.762 -1.7981) (layer F.SilkS) (width 0.35))
  (fp_line (start -3.762 -1.7981) (end -3.635 -1.6711) (layer F.SilkS) (width 0.35))
  (fp_line (start -3.635 -1.6711) (end -3.762 -1.5441) (layer F.SilkS) (width 0.35))
  (fp_line (start -3.762 -1.5441) (end -3.889 -1.6711) (layer F.SilkS) (width 0.35))
  (fp_line (start -4.139 -2.0481) (end 3.875 -2.0481) (layer F.CrtYd) (width 0.15))
  (fp_line (start 3.875 -2.0481) (end 3.875 1.977) (layer F.CrtYd) (width 0.15))
  (fp_line (start 3.875 1.977) (end -4.139 1.977) (layer F.CrtYd) (width 0.15))
  (fp_line (start -4.139 1.977) (end -4.139 -2.0481) (layer F.CrtYd) (width 0.15))
  (pad 1 smd rect (at -2.45 0) (size 2.35 2.25) (layers F.Cu F.Paste F.Mask))
  (pad 2 smd rect (at 2.45 0) (size 2.35 2.25) (layers F.Cu F.Paste F.Mask))
  (model smd_cap/c_tant_C.wrl
    (at (xyz 0 0 0))
    (scale (xyz 1 1 1))
    (rotate (xyz 0 0 180))
  )
)
